[
  {
    "sid": "a",
    "host": "127.0.0.1",
    "port": 5984
  },
  {
    "sid": "b",
    "host": "127.0.0.1",
    "port": 5985
  },
  {
    "sid": "c",
    "host": "127.0.0.1",
    "port": 5986
  },
  {
    "sid": "d",
    "host": "127.0.0.1",
    "port": 5987
  },
  {
    "sid": "e",
    "host": "127.0.0.1",
    "port": 5988
  },
  {
    "sid": "f",
    "host": "127.0.0.1",
    "port": 5989
  },
  {
    "sid": "g",
    "host": "127.0.0.1",
    "port": 5990
  },
  {
    "sid": "h",
    "host": "127.0.0.1",
    "port": 5991
  },
  {
    "sid": "i",
    "host": "127.0.0.1",
    "port": 5992
  },
  {
    "sid": "j",
    "host": "127.0.0.1",
    "port": 5993
  }
]